…
<img src="man/figures/README-km_pi_group-1.png" width="100%" />

``` r
extract_medsurv_pi(km.pi)
#> # A tibble: 32 x 7
#>    node4 depth rx          n description median quantile
#>    <dbl> <dbl> <fct>   <dbl> <chr>        <dbl>    <dbl>
#>  1     0     0 Obs       193 pi_low       1257.    0.025
#>  2     0     0 Obs       193 pi_med       1895.    0.5  
#>  3     0     0 Obs       193 pi_high      2713.    0.975
#>  4     0     0 Obs       193 obs          1436    NA    
#>  5     0     0 Lev+5FU   192 pi_low       2429.    0.025
#>  6     0     0 Lev+5FU   192 pi_med       2716.    0.5  
#>  7     0     0 Lev+5FU   192 pi_high      2908.    0.975
#>  8     0     0 Lev+5FU   192 obs            NA    NA    
#>  9     0     1 Obs        35 pi_low       1539.    0.025
#> 10     0     1 Obs        35 pi_med       2558.    0.5  
#> # … with 22 more rows
```
…
