Parametric Survival Simulation with Parameter Uncertainty • survParamSim
…
extract_median_surv(km.pi)
#> # A tibble: 32 x 7
#>    rx    node4 depth     n description median quantile
#>    <fct> <dbl> <dbl> <dbl> <chr>        <dbl>    <dbl>
#>  1 Obs       0     0   193 pi_low       1257.    0.025
#>  2 Obs       0     0   193 pi_med       1895.    0.5  
#>  3 Obs       0     0   193 pi_high      2713.    0.975
#>  4 Obs       0     0   193 obs          1436    NA    
#>  5 Obs       0     1    35 pi_low       1539.    0.025
#>  6 Obs       0     1    35 pi_med       2558.    0.5  
#>  7 Obs       0     1    35 pi_high      2913.    0.975
#>  8 Obs       0     1    35 obs            NA    NA    
#>  9 Obs       1     0    76 pi_low        264.    0.025
#> 10 Obs       1     0    76 pi_med        451.    0.5  
#> # … with 22 more rows
…
